342318202;asdasdasd;asdasdsaa;5;False;False;False;True;False;949001083
2024038512;asdasd;asdasda;5;True;False;True;False;False;359300269
485299102;asdasdas;dasdsad;5;True;True;False;True;False;956219543
771412307;zzxzx;zxzxxz;4;True;True;True;True;False;1148226554
